(mail ricevuta da Marco Brianza)

Il mio backend è una macchina virtuale con dietPi www.dietpi.com
Usare dietpi-software per installare i pacchetti (nodered influxdb e grafana)

Per configurare influxdb db
https://dietpi.com/phpbb/viewtopic.php?f=8&t=5&p=12523&hilit=influx&sid=248e7e679e0e048577f70cdb6873a20e#p12523

grafana
https://dietpi.com/phpbb/viewtopic.php?f=8&t=5&start=130#p12524

Il flow di nodered è allegato qui sotto

node-red-strawberry_fields.txt

[{"id":"9b741b77.f6fab8","type":"tab","label":"strawberry_fields","disabled":true,"info":""},{"id":"28211dff.f07e52","type":"mqtt in","z":"9b741b77.f6fab8","name":"","topic":"#","qos":"2","broker":"61d2abec.177914","x":90,"y":120,"wires":[["ec7cdb38.e3f8e8"]]},{"id":"ec7cdb38.e3f8e8","type":"json","z":"9b741b77.f6fab8","name":"","property":"payload","action":"","pretty":false,"x":230,"y":120,"wires":[["39aca342.5fc69c","8d8bdf1.ab09b2"]]},{"id":"39aca342.5fc69c","type":"switch","z":"9b741b77.f6fab8","name":"","property":"payload.port","propertyType":"msg","rules":[{"t":"neq","v":"33","vt":"str"},{"t":"eq","v":"33","vt":"str"}],"checkall":"true","repair":false,"outputs":2,"x":370,"y":120,"wires":[["a0a23666.3579b8"],["543de764.375378"]]},{"id":"543de764.375378","type":"change","z":"9b741b77.f6fab8","name":"","rules":[{"t":"set","p":"dev_id","pt":"msg","to":"payload.dev_id","tot":"msg"},{"t":"set","p":"time","pt":"msg","to":"payload.metadata.time","tot":"msg"},{"t":"set","p":"counter","pt":"msg","to":"payload.counter","tot":"msg"},{"t":"set","p":"payload","pt":"msg","to":"payload.payload_raw","tot":"msg"}],"action":"","property":"","from":"","to":"","reg":false,"x":540,"y":120,"wires":[["22447e26.f57bd2"]]},{"id":"a0a23666.3579b8","type":"debug","z":"9b741b77.f6fab8","name":"","active":false,"tosidebar":true,"console":false,"tostatus":false,"complete":"true","x":570,"y":40,"wires":[]},{"id":"fe786e5b.0593e","type":"binary","z":"9b741b77.f6fab8","name":"","pattern":"b32f => batteryVoltage,  b32f => temperature, b32f => humidity","x":290,"y":200,"wires":[["9f4604e5.875508","db40bda9.53ab6","b7678d34.79961","58cfdbb.bed0c24"]]},{"id":"ce40894c.2e2d08","type":"debug","z":"9b741b77.f6fab8","name":"","active":true,"tosidebar":true,"console":false,"tostatus":false,"complete":"payload","x":770,"y":120,"wires":[]},{"id":"22447e26.f57bd2","type":"base64","z":"9b741b77.f6fab8","name":"","action":"","property":"payload","x":140,"y":200,"wires":[["fe786e5b.0593e"]]},{"id":"9f4604e5.875508","type":"function","z":"9b741b77.f6fab8","name":"pepare data to log","func":"//reduce voltage decimals\nmsg.payload.batteryVoltage  = Math.round(msg.payload.batteryVoltage * 1000) / 1000;\nmsg.payload.temperature  = Math.round(msg.payload.temperature * 1000) / 1000;\nmsg.payload.humidity  = Math.round(msg.payload.humidity * 1000) / 1000;\n\n//transform date to epoc s\nmsg.payload.time= Math.round(new Date(msg.time).getTime()/1000);\n\n//set measurement to dev_id\nmsg.measurement=msg.dev_id;\n\nreturn msg;","outputs":1,"noerr":0,"x":510,"y":200,"wires":[["ce40894c.2e2d08","b390c3e.f93154","eb49e0cc.61875","afda2341.f2293","881950be.599d5"]]},{"id":"b390c3e.f93154","type":"ui_text","z":"9b741b77.f6fab8","group":"d44ff0.03c3101","order":4,"width":0,"height":0,"name":"","label":"temperature","format":"{{msg.payload.temperature}}","layout":"row-spread","x":750,"y":320,"wires":[]},{"id":"eb49e0cc.61875","type":"ui_text","z":"9b741b77.f6fab8","group":"d44ff0.03c3101","order":3,"width":0,"height":0,"name":"","label":"batteryVoltage","format":"{{msg.payload.batteryVoltage}}","layout":"row-spread","x":760,"y":280,"wires":[]},{"id":"afda2341.f2293","type":"ui_text","z":"9b741b77.f6fab8","group":"d44ff0.03c3101","order":5,"width":0,"height":0,"name":"","label":"humidity","format":"{{msg.payload.humidity}}","layout":"row-spread","x":740,"y":360,"wires":[]},{"id":"db40bda9.53ab6","type":"ui_text","z":"9b741b77.f6fab8","group":"d44ff0.03c3101","order":2,"width":0,"height":0,"name":"","label":"time","format":"{{msg.time}}","layout":"row-spread","x":430,"y":340,"wires":[]},{"id":"881950be.599d5","type":"influxdb out","z":"9b741b77.f6fab8","influxdb":"99a268f3.fa6258","name":"","measurement":"","precision":"s","retentionPolicy":"","x":840,"y":200,"wires":[]},{"id":"b7678d34.79961","type":"ui_text","z":"9b741b77.f6fab8","group":"d44ff0.03c3101","order":1,"width":0,"height":0,"name":"","label":"device id","format":"{{msg.dev_id}}","layout":"row-spread","x":420,"y":280,"wires":[]},{"id":"8d8bdf1.ab09b2","type":"debug","z":"9b741b77.f6fab8","name":"","active":false,"tosidebar":true,"console":false,"tostatus":false,"complete":"false","x":370,"y":20,"wires":[]},{"id":"58cfdbb.bed0c24","type":"ui_text","z":"9b741b77.f6fab8","group":"d44ff0.03c3101","order":2,"width":0,"height":0,"name":"","label":"counter","format":"{{msg.counter}}","layout":"row-spread","x":420,"y":400,"wires":[]},{"id":"61d2abec.177914","type":"mqtt-broker","z":"","name":"ttn-strawberry_fields","broker":"eu.thethings.network","port":"1883","clientid":"","usetls":false,"compatmode":true,"keepalive":"60","cleansession":true,"birthTopic":"","birthQos":"0","birthPayload":"","closeTopic":"","closeQos":"0","closePayload":"","willTopic":"","willQos":"0","willPayload":""},{"id":"d44ff0.03c3101","type":"ui_group","z":"","name":"strawberry_fields","tab":"467b4979.337908","disp":true,"width":"6","collapse":false},{"id":"99a268f3.fa6258","type":"influxdb","z":"","hostname":"127.0.0.1","port":"8086","protocol":"http","database":"strawberry_fields","name":"","usetls":false,"tls":""},{"id":"467b4979.337908","type":"ui_tab","name":"Tab 1","icon":"dashboard","order":1}]

Ciao
Marco
